Název,Typ,Měsíc
Bojínek,Byliny,Červen
Bojínek,Byliny,Červenec
Bojínek,Byliny,Květen
Bříza,Stromy,Duben
Bříza,Stromy,Květen
Buk,Stromy,Duben
Buk,Stromy,Květen
Cypriš,Stromy,Duben
Cypriš,Stromy,Květen
Drnavec,Trávy,Červen
Drnavec,Trávy,Červenec
Drnavec,Trávy,Duben
Drnavec,Trávy,Květen
Drnavec,Trávy,Srpen
Drnavec,Trávy,Září
Dub,Stromy,Duben
Dub,Stromy,Květen
Habr,Stromy,Duben
Habr,Stromy,Květen
Hořčice,Trávy,Duben
Hořčice,Trávy,Květen
Jasan,Stromy,Duben
Jasan,Stromy,Květen
Javor,Stromy,Duben
Javor,Stromy,Květen
Jetel,Trávy,Červen
Jetel,Trávy,Červenec
Jetel,Trávy,Květen
Jetel,Trávy,Srpen
Jetel,Trávy,Září
Jílek,Byliny,Červen
Jílek,Byliny,Červenec
Jílek,Byliny,Květen
Jílek,Byliny,Srpen
Jilm,Stromy,Duben
Jilm,Stromy,Květen
Jírovec,Stromy,Duben
Jírovec,Stromy,Květen
Jitrocel,Trávy,Červen
Jitrocel,Trávy,Červenec
Jitrocel,Trávy,Duben
Jitrocel,Trávy,Květen
Jitrocel,Trávy,Říjen
Jitrocel,Trávy,Srpen
Jitrocel,Trávy,Září
Kaštanovník,Stromy,Duben
Kaštanovník,Stromy,Květen
Kostřava,Byliny,Červen
Kostřava,Byliny,Červenec
Kostřava,Byliny,Květen
Kukuřice,Byliny,Červen
Kukuřice,Byliny,Červenec
Kukuřice,Byliny,Srpen
Kukuřice,Byliny,Září
Lípa,Stromy,Červen
Lípa,Stromy,Červenec
Lipnice,Byliny,Červen
Lipnice,Byliny,Červenec
Lipnice,Byliny,Květen
Lipnice,Byliny,Srpen
Líska,Stromy,Březen
Líska,Stromy,Duben
Líska,Stromy,Leden
Líska,Stromy,Únor
Medyněk,Byliny,Červen
Medyněk,Byliny,Červenec
Medyněk,Byliny,Srpen
Medyněk,Byliny,Září
Olivovník,Stromy,Červen
Olivovník,Stromy,Květen
Ořešák,Stromy,Duben
Ořešák,Stromy,Květen
Pelyněk,Trávy,Červenec
Pelyněk,Trávy,Srpen
Pelyněk,Trávy,Září
Platan,Stromy,Duben
Platan,Stromy,Květen
Psárka,Byliny,Červen
Psárka,Byliny,Červenec
Psárka,Byliny,Květen
Pýr,Byliny,Červen
Pýr,Byliny,Červenec
Pýr,Byliny,Srpen
Rákos,Byliny,Červen
Rákos,Byliny,Červenec
Rákos,Byliny,Květen
Řepka,Trávy,Duben
Řepka,Trávy,Květen
Sedmikráska,Trávy,Březen
Sedmikráska,Trávy,Červen
Sedmikráska,Trávy,Červenec
Sedmikráska,Trávy,Duben
Sedmikráska,Trávy,Květen
Sedmikráska,Trávy,Srpen
Sedmikráska,Trávy,Září
Srna,Byliny,Červen
Srna,Byliny,Červenec
Srna,Byliny,Duben
Srna,Byliny,Květen
Srna,Byliny,Srpen
Srna,Byliny,Září
Tolice vojtěška,Trávy,Červen
Tolice vojtěška,Trávy,Květen
Topol,Stromy,Březen
Topol,Stromy,Duben
